{
    "recipient": "itau",
    "recipientBra": "BRADESCO EST UNIF ",
    "recipientRenner": "renner",
    "recipient8": "nu pag",
    "firstName": "João",
    "familyName": "Silva",
    "email": "ytxytrqbte@mail.com",
    "emailFake": "ytxmbte",
    "emailExist": "verardev@outlook.com",
    "passwordFake": "1234567",
    "cnpjFake": "01247325100013",
    "birthDate": "10/09/1995",
    "birthDateOld": "10/09/1200",
    "cpfFake": "01538879669",
    "estados": {
        "acre": "AC",
        "alagoas": "AL",
        "amapa": "AP",
        "amazonas": "AM",
        "bahia": "BA",
        "ceara": "CE",
        "distritoFederal": "DF",
        "espiritoSanto": "ES",
        "goias": "GO",
        "maranhao": "MA",
        "matoGrosso": "MT",
        "matoGrossoDoSul": "MS",
        "minasGerais": "MG",
        "para": "PA",
        "paraiba": "PB",
        "parana": "PR",
        "pernambuco": "PE",
        "piaui": "PI",
        "rioDeJaneiro": "RJ",
        "rioGrandeDoNorte": "RN",
        "rioGrandeDoSul": "RS",
        "rondonia": "RO",
        "roraima": "RR",
        "santaCatarina": "SC",
        "saoPaulo": "SP",
        "sergipe": "SE",
        "tocantis": "TO"
    }
}